Creating race
{
	"msgType":	"joinRace",
	"data":	{
		"botId":	{
			"name":	"SimpleLab3",
			"key":	"cTm+sUu038jS5g"
		},
		"trackName":	"usa",
		"carCount":	4,
		"password":	"hola"
	}
}
Joined to race
