Creating race
{
	"msgType":	"createRace",
	"data":	{
		"botId":	{
			"name":	"SimpleLab",
			"key":	"cTm+sUu038jS5g"
		},
		"trackName":	"usa",
		"carCount":	2,
		"password":	"hola"
	}
}
Race created
